<?xml version="1.0" encoding="UTF-8" standalone="no"?>
<!DOCTYPE svg PUBLIC "-//W3C//DTD SVG 1.0//EN" "http://www.w3.org/TR/2001/REC-SVG-20010904/DTD/svg10.dtd">
<!-- Generated by Microsoft Visio 11.0, SVG Export, v1.0 LOGO.svg LOGO -->
<svg xmlns="http://www.w3.org/2000/svg" xmlns:xlink="http://www.w3.org/1999/xlink" xmlns:ev="http://www.w3.org/2001/xml-events"
		xmlns:v="http://schemas.microsoft.com/visio/2003/SVGExtensions/" width="4.58333in" height="4.20915in"
		viewBox="0 0 330 303.059" xml:space="preserve" color-interpolation-filters="sRGB" class="st8">
	<v:documentProperties v:langID="1033" v:metric="true" v:viewMarkup="false">
		<v:userDefs>
			<v:ud v:nameU="msvSubprocessMaster" v:prompt="" v:val="VT4(Box)"/>
			<v:ud v:nameU="msvNoAutoConnect" v:val="VT0(1):26"/>
		</v:userDefs>
	</v:documentProperties>

	<style type="text/css">
	<![CDATA[
		.st1 {fill:none;stroke:none;stroke-linecap:round;stroke-linejoin:round;stroke-width:0.75}
		.st2 {fill:#ffffff;font-family:Arial Black;font-size:4.00001em;font-style:italic}
		.st3 {font-size:1em}
		.st4 {fill:#00418a;stroke:none;stroke-linecap:butt;stroke-width:0.75}
		.st5 {fill:#0099d8;stroke:none;stroke-linecap:butt;stroke-width:0.75}
		.st6 {fill:#00a886;stroke:none;stroke-linecap:butt;stroke-width:0.75}
		.st7 {fill:#ffffff;stroke:none;stroke-linecap:butt;stroke-width:0.75}
		.st8 {fill:none;fill-rule:evenodd;font-size:12px;overflow:visible;stroke-linecap:square;stroke-miterlimit:3}
	]]>
	</style>

	<g v:mID="37" v:index="35" v:groupContext="foregroundPage">
		<title>LOGO</title>
		<v:pageProperties v:drawingScale="0.0393701" v:pageScale="0.0393701" v:drawingUnits="24" v:shadowOffsetX="8.50394"
				v:shadowOffsetY="-8.50394"/>
		<g id="shape2-1" v:mID="2" v:groupContext="shape" transform="translate(18.75,-18.75)">
			<title>Sheet.2</title>
			<desc>Infracore NamSan</desc>
			<v:textBlock v:margins="rect(4,4,4,4)" v:tabSpace="42.5197"/>
			<v:textRect cx="143.991" cy="239.988" width="287.99" height="126.142"/>
			<rect x="0" y="176.917" width="287.982" height="126.142" class="st1"/>
			<text x="23.97" y="225.59" class="st2" v:langID="1042"><v:paragraph v:horizAlign="1"/><v:tabList/>Infracore<v:newlineChar/><tspan
						x="26.64" dy="1.2em" class="st3"> </tspan>NamSan  </text>		</g>
		<g id="group1-5" transform="translate(18,-146.937)" v:mID="1" v:groupContext="group">
			<title>Sheet.1</title>
			<g id="group3-6" v:mID="3" v:groupContext="group">
				<title>layer1</title>
				<g id="shape4-7" v:mID="4" v:groupContext="shape" transform="translate(0,-13.3327)">
					<title>rect13</title>
					<path d="M30.52 178.27 L0 272.42 L1.05 272.77 L94.15 303.06 L124.79 208.79 L30.52 178.27 Z" class="st4"/>
				</g>
				<g id="shape5-9" v:mID="5" v:groupContext="shape" transform="translate(91.9252,0)">
					<title>rect17</title>
					<path d="M98.71 197.1 L0 204.35 L7.13 303.06 L8.3 302.94 L105.96 295.92 L98.71 197.1 Z" class="st5"/>
				</g>
				<g id="shape6-11" v:mID="6" v:groupContext="shape" transform="translate(183.266,-6.90024)">
					<title>rect21</title>
					<path d="M10.88 193.82 L0 292.18 L1.05 292.3 L98.36 303.06 L109.23 204.7 L10.88 193.82 Z" class="st6"/>
				</g>
				<g id="shape7-13" v:mID="7" v:groupContext="shape" transform="translate(13.5483,-49.3433)">
					<title>path25</title>
					<path d="M12.23 268.52 L34.01 268.52 C51.34 268.52 49.32 276.74 46.11 285.79 C42.91 294.84 39.11 303.06 21.77
								 303.06 L0 303.06 L12.23 268.52 ZM17.3 296.58 L20.28 296.58 C26.09 296.58 27.33 295.12 30.64 285.79
								 C33.95 276.44 33.72 275 27.92 275 L24.94 275 L17.3 296.58 Z" class="st7"/>
				</g>
				<g id="shape8-15" v:mID="8" v:groupContext="shape" transform="translate(57.2395,-48.6672)">
					<title>path27</title>
					<path d="M31.5 267.16 C46.83 267.16 50.28 272.2 45.71 285.11 C41.13 298.03 34.1 303.06 18.78 303.06 C3.46 303.06
								 0 298.03 4.57 285.11 C9.15 272.2 16.17 267.16 31.5 267.16 ZM20.95 296.96 C25.54 296.96 26.91 294.45
								 30.22 285.11 C33.53 275.77 33.94 273.26 29.34 273.26 C24.74 273.26 23.36 275.77 20.06 285.11 C16.76
								 294.45 16.35 296.96 20.95 296.96 Z" class="st7"/>
				</g>
				<g id="shape9-17" v:mID="9" v:groupContext="shape" transform="translate(100.607,-48.6672)">
					<title>path29</title>
					<path d="M31.49 267.16 C46.81 267.16 50.27 272.2 45.7 285.11 C41.13 298.03 34.1 303.06 18.78 303.06 C3.46 303.06
								 -0 298.03 4.57 285.11 C9.15 272.2 16.16 267.16 31.49 267.16 ZM20.93 296.96 C25.54 296.96 26.9 294.45
								 30.22 285.11 C33.52 275.77 33.93 273.26 29.34 273.26 C24.74 273.26 23.36 275.77 20.06 285.11 C16.75
								 294.45 16.34 296.96 20.93 296.96 Z" class="st7"/>
				</g>
				<g id="shape10-19" v:mID="10" v:groupContext="shape" transform="translate(141.947,-48.6672)">
					<title>path31</title>
					<path d="M32.22 277.81 L32.52 276.99 C33.24 274.95 32.48 273.26 29.56 273.26 C26.34 273.26 24.36 274.75 23.81
								 276.3 C21.39 283.13 47.1 279.79 42.62 292.42 C40.01 299.77 31.67 303.06 18.45 303.06 C6.02 303.06
								 0 300.5 2.54 293.34 L2.96 292.12 L17.48 292.12 L17.19 292.96 C16.14 295.9 17.78 296.96 20.68 296.96
								 C23.75 296.96 26.04 295.52 26.71 293.62 C29.12 286.8 4.37 290.19 8.71 277.96 C11.19 270.99 18.74
								 267.16 31.41 267.16 C44.47 267.16 48.88 270.4 46.26 277.81 L32.22 277.81 Z" class="st7"/>
				</g>
				<g id="shape11-21" v:mID="11" v:groupContext="shape" transform="translate(180.092,-49.3433)">
					<title>path33</title>
					<path d="M26.29 268.52 L45.15 268.52 L46.93 303.06 L30.97 303.06 L31.58 297.01 L19.64 297.01 L15.98 303.06 L0
								 303.06 L26.29 268.52 ZM33.29 275.58 L33.12 275.58 L23.82 290.23 L32.21 290.23 L33.29 275.58 Z"
							class="st7"/>
				</g>
				<g id="shape12-23" v:mID="12" v:groupContext="shape" transform="translate(228.883,-49.3433)">
					<title>polygon35</title>
					<path d="M12.23 268.52 L29 268.52 L31.14 289.81 L31.31 289.81 L38.84 268.52 L52.87 268.52 L40.64 303.06 L24.18
								 303.06 L21.75 281.73 L21.58 281.73 L14.03 303.06 L0 303.06 L12.23 268.52 Z" class="st7"/>
				</g>
			</g>
		</g>
	</g>
</svg>
